{
  "Results": {
    "minor & retired": {
      "type": "table",
      "value": {
        "ColumnNames": [
          "id",
          "m",
          "a",
          "r"
        ],
        "ColumnTypes": [
          "String",
          "Nullable`1",
          "Nullable`1",
          "Nullable`1"
        ],
        "Values": [
          [
            "Ang Mo Kio",
            "0.174153946439242",
            "0.671519365527731",
            "0.154326688033027"
          ],
          [
            "Bedok",
            "0.185117553070075",
            "0.677405680373039",
            "0.137476766556885"
          ],
          [
            "Bishan",
            "0.18698679970897",
            "0.686311194262551",
            "0.126702006028479"
          ],
          [
            "Boon Lay",
            null,
            null,
            null
          ],
          [
            "Bukit Batok",
            "0.199367088607595",
            "0.707581470509022",
            "0.0930514408833827"
          ],
          [
            "Bukit Merah",
            "0.173284976641259",
            "0.650602409638554",
            "0.176112613720187"
          ],
          [
            "Bukit Panjang",
            "0.221189465885364",
            "0.696436990637839",
            "0.0823735434767967"
          ],
          [
            "Bukit Timah",
            "0.219770520741395",
            "0.649098474341193",
            "0.131131004917413"
          ],
          [
            "Central Water Catchment",
            null,
            null,
            null
          ],
          [
            "Changi",
            "0.292134831460674",
            "0.617977528089888",
            "0.0898876404494382"
          ],
          [
            "Changi Bay",
            null,
            null,
            null
          ],
          [
            "Choa Chu Kang",
            "0.225787692958342",
            "0.703742863184606",
            "0.0704694438570522"
          ],
          [
            "Clementi",
            "0.181686046511628",
            "0.664348006644518",
            "0.153965946843854"
          ],
          [
            "Downtown Core",
            "0.114583333333333",
            "0.6953125",
            "0.190104166666667"
          ],
          [
            "Geylang",
            "0.175034471571093",
            "0.68115824478871",
            "0.143807283640198"
          ],
          [
            "Hougang",
            "0.187832699619772",
            "0.698690325306295",
            "0.113476975073933"
          ],
          [
            "Jurong East",
            "0.18552690084482",
            "0.696531791907514",
            "0.117941307247666"
          ],
          [
            "Jurong West",
            "0.220922632357494",
            "0.699576868829337",
            "0.0795004988131687"
          ],
          [
            "Kallang",
            "0.1699697999245",
            "0.666289165722914",
            "0.163741034352586"
          ],
          [
            "Lim Chu Kang",
            null,
            null,
            null
          ],
          [
            "Mandai",
            "0.232456140350877",
            "0.679824561403509",
            "0.087719298245614"
          ],
          [
            "Marina East",
            null,
            null,
            null
          ],
          [
            "Marina South",
            null,
            null,
            null
          ],
          [
            "Marine Parade",
            "0.198324566530294",
            "0.642704071692967",
            "0.158971361776739"
          ],
          [
            "Museum",
            "0.15",
            "0.75",
            "0.1"
          ],
          [
            "Newton",
            "0.196969696969697",
            "0.674931129476584",
            "0.128099173553719"
          ],
          [
            "North0Eastern Islands",
            null,
            null,
            null
          ],
          [
            "Novena",
            "0.199485454185632",
            "0.655254304373639",
            "0.145260241440728"
          ],
          [
            "Orchard",
            "0.178947368421053",
            "0.663157894736842",
            "0.157894736842105"
          ],
          [
            "Outram",
            "0.167761717038984",
            "0.639071397284275",
            "0.193166885676741"
          ],
          [
            "Pasir Ris",
            "0.22471098265896",
            "0.701720966894377",
            "0.0735680504466632"
          ],
          [
            "Paya Lebar",
            null,
            null,
            null
          ],
          [
            "Pioneer",
            null,
            null,
            null
          ],
          [
            "Punggol",
            "0.278809106830123",
            "0.661733800350263",
            "0.0594570928196147"
          ],
          [
            "Queenstown",
            "0.175761112732225",
            "0.651590312226437",
            "0.172648575041338"
          ],
          [
            "River Valley",
            "0.194588969823101",
            "0.68678459937565",
            "0.118626430801249"
          ],
          [
            "Rochor",
            "0.151973684210526",
            "0.66578947368421",
            "0.182236842105263"
          ],
          [
            "Seletar",
            "0.241379310344828",
            "0.689655172413793",
            "0.0689655172413793"
          ],
          [
            "Sembawang",
            "0.246465888137677",
            "0.685556238475722",
            "0.0679778733866011"
          ],
          [
            "Sengkang",
            "0.25164744645799",
            "0.680624199157972",
            "0.0677283543840381"
          ],
          [
            "Serangoon",
            "0.179856675494625",
            "0.686945007010438",
            "0.133198317494937"
          ],
          [
            "Simpang",
            null,
            null,
            null
          ],
          [
            "Singapore River",
            "0.206405693950178",
            "0.715302491103203",
            "0.0782918149466192"
          ],
          [
            "Southern Islands",
            "0.222929936305732",
            "0.726114649681529",
            "0.0509554140127389"
          ],
          [
            "Straits View",
            null,
            null,
            null
          ],
          [
            "Sungei Kadut",
            "0.160919540229885",
            "0.586206896551724",
            "0.252873563218391"
          ],
          [
            "Tampines",
            "0.198518359458879",
            "0.707214945243719",
            "0.0942666952974018"
          ],
          [
            "Tanglin",
            "0.216891554222889",
            "0.664167916041979",
            "0.118940529735132"
          ],
          [
            "Tengah",
            null,
            null,
            null
          ],
          [
            "Toa Payoh",
            "0.174250494597474",
            "0.65751027240907",
            "0.168239232993456"
          ],
          [
            "Tuas",
            null,
            null,
            null
          ],
          [
            "Western Islands",
            null,
            null,
            null
          ],
          [
            "Western Water Catchment",
            "0.189473684210526",
            "0.736842105263158",
            "0.0736842105263158"
          ],
          [
            "Woodlands",
            "0.237423064165407",
            "0.696531898426271",
            "0.066045037408322"
          ],
          [
            "Yishun",
            "0.199878606779344",
            "0.709636754132039",
            "0.0904846390886171"
          ]
        ]
      }
    }
  }
}